EDA of Titanic Data
…
Looks like a fairly young population. There are also 177 NAs for Age. These rows of data may have to be removed from the data set Or Age will have to be estimated. A mean or median age can take the place of NAs or a predictive model for Age can be created. This will probably require its own separate EDA. For now, lets look at any trends in the available data.

df <- train2 %>% 
  filter(is.na(Age)==FALSE) %>% 
  group_by(Age) %>% 
  summarise(SurvivalRate = mean(Survived),
            n = n()) %>% 
  ungroup()

## `summarise()` ungrouping output (override with `.groups` argument)

df

## # A tibble: 88 x 3
##      Age SurvivalRate     n
##    <dbl>        <dbl> <int>
##  1  0.42        1         1
##  2  0.67        1         1
##  3  0.75        1         2
##  4  0.83        1         2
##  5  0.92        1         1
##  6  1           0.714     7
##  7  2           0.3      10
##  8  3           0.833     6
##  9  4           0.7      10
## 10  5           1         4
## # ... with 78 more rows
…
Lets look at the survival rate for each AgeBin.

df <- train3 %>% 
  group_by(AgeBin) %>% 
  summarise(
    SurvivalRate = mean(Survived),
    n = n()
  ) %>% 
  ungroup()

## `summarise()` ungrouping output (override with `.groups` argument)

df

## # A tibble: 21 x 3
##    AgeBin SurvivalRate     n
##     <int>        <dbl> <int>
##  1      1        0.667    30
##  2      2        0.537    41
##  3      3        0.448    29
##  4      4        0.385    39
##  5      5        0.3      40
##  6      6        0.2      25
##  7      7        0.372    43
##  8      8        0.484    31
##  9      9        0.293    41
## 10     10        0.611    18
## # ... with 11 more rows
…
I dont see any clear trend. SibSp could potentially link to the LastName feature somehow. Im guessing if one sibling survives, so should the other. The table below shows average survival rate, sample size (n), and average number of Siblings/Spouses by last name.

train3 %>% 
  group_by(LastName) %>% 
  summarise(SurvivalRate = mean(Survived),
            n = n(),
            SibSp = mean(SibSp)) %>% 
  ungroup()

## `summarise()` ungrouping output (override with `.groups` argument)

## # A tibble: 667 x 4
##    LastName  SurvivalRate     n SibSp
##    <chr>            <dbl> <int> <dbl>
##  1 Abbing             0       1     0
##  2 Abbott             0.5     2     1
##  3 Abelson            0.5     2     1
##  4 Adahl              0       1     0
##  5 Adams              0       1     0
##  6 Ahlin              0       1     1
##  7 Aks                1       1     0
##  8 Albimona           1       1     0
##  9 Alexander          0       1     0
## 10 Alhomaki           0       1     0
## # ... with 657 more rows
…
Below is the average survival rate by TicketPrefix.

train4 %>% 
  group_by(TicketPrefix) %>% 
  summarise(SurvivalRate = mean(Survived),
            n = n()) %>% 
  ungroup()

## `summarise()` ungrouping output (override with `.groups` argument)

## # A tibble: 35 x 3
##    TicketPrefix SurvivalRate     n
##    <chr>               <dbl> <int>
##  1 A/4                 0         6
##  2 A/5                 0.105    19
##  3 A/S                 0         1
##  4 A4                  0         1
##  5 A5                  0         2
##  6 C                   0.4       5
##  7 CA                  0.341    41
##  8 CA/SOTON            0         1
##  9 Fa                  0         1
## 10 FC                  0         1
## # ... with 25 more rows
…
3.11 Cabin

Below is count of each Cabin.

train5 %>% 
  group_by(Cabin) %>% 
  count() %>% 
  ungroup()

## # A tibble: 148 x 2
##    Cabin     n
##    <chr> <int>
##  1 A10       1
##  2 A14       1
##  3 A16       1
##  4 A19       1
##  5 A20       1
##  6 A23       1
##  7 A24       1
##  8 A26       1
##  9 A31       1
## 10 A32       1
## # ... with 138 more rows
…
